{
  "iisSettings": {
    "windowsAuthentication": false,
    "anonymousAuthentication": true,
    "iisExpress": {
      "applicationUrl": "https://localhost:5001",
      "sslPort": 50001
    }
  },
  "profiles": {
    "self hosting": {
      "commandName": "Project",
      "environmentVariables": {
        "MTT_ALLOW_ORIGIN": "http://localhost:5000",
        "MTT_AUTHORITY": "https://key.mythictable.com/auth/realms/MythicTable",
        "ASPNETCORE_ENVIRONMENT": "Development"
      },
      "applicationUrl": "https://localhost:5001"
    },
    "integration": {
      "commandName": "Project",
      "commandLineArgs": "--launch-profile integration",
      "environmentVariables": {
        "MTT_MONGODB_CONNECTIONSTRING": "mongodb://admin:abc123!@127.0.0.1",
        "MTT_MONGODB_DATABASENAME": "mythictable",
        "MTT_USE_GCP_IMAGE_STORE": "false",
        "MTT_REDIS_CONN_STRING": "localhost",
        "MTT_ALLOW_ORIGIN": "http://localhost:5000",
        "MTT_AUTHORITY": "https://key.mythictable.com/auth/realms/MythicTable",
        "ASPNETCORE_ENVIRONMENT": "Development"
      },
      "applicationUrl": "https://localhost:5001"
    },
    "local-keycloak": {
      "commandName": "Project",
      "environmentVariables": {
        "MTT_ALLOW_ORIGIN": "http://localhost:5000",
        "MTT_AUTHORITY": "http://localhost:5002/auth/realms/MythicTable",
        "ASPNETCORE_ENVIRONMENT": "Development"
      },
      "applicationUrl": "https://localhost:5001"
    }
  }
}
